scatterplots
…
asthma_corr = function(df) {
  
  df %>%
  cor.test(
    median_aqi, 
    asthma_perc,
    method = "spearman")

}

spearman_nest %>% pull(data) %>% .[[1]]

## # A tibble: 51 × 6
## # Groups:   state_year, state, median_aqi [51]
##    state_year state median_aqi asthma_current     n asthma_perc
##    <chr>      <fct>      <dbl> <chr>          <int>       <dbl>
##  1 1_2013     AL            38 yes              581        9.21
##  2 10_2013    AK            41 yes              508       10.1 
##  3 11_2013    AZ            48 yes              443        9.44
##  4 12_2013    AR            36 yes             2933        9.13
##  5 13_2013    CA            38 yes              678        8.65
##  6 15_2013    CO            29 yes              714        9.58
##  7 16_2013    CT            22 yes              498        9.19
##  8 17_2013    DE            37 yes              459        8.34
##  9 18_2013    DC            42 yes             1009       10.1 
## 10 19_2013    FL            42 yes              586        7.52
## # … with 41 more rows
…
